{
  "menu": [
    {
      "insumo": "macarronada",
      "preço-unitário": 32
    },
    {
      "insumo": "pizza",
      "preço-unitário": 25
    },
    {
      "insumo": "pudim",
      "preço-unitário": 10
    },
    {
      "insumo": "refrigerante",
      "preço-unitário": 15
    }
  ]
}
